{
  "playlists" : {
    "href" : "https://api.spotify.com/v1/search?query=%22k+pop%22&offset=0&limit=20&type=playlist",
    "items" : [ {
      "collaborative" : false,
      "external_urls" : {
        "spotify" : "http://open.spotify.com/user/11186908745/playlist/78U80CImgPUYlE7cVft2JY"
      },
      "href" : "https://api.spotify.com/v1/users/11186908745/playlists/78U80CImgPUYlE7cVft2JY",
      "id" : "78U80CImgPUYlE7cVft2JY",
      "images" : [ {
        "height" : 640,
        "url" : "https://mosaic.scdn.co/640/9194f91fa741a39ad59c9496abb0c7fc897ebc3f94e793d4df5245e4341b4912660c34d0d579835845c6092479996238de7569aa7312fc578fbc6c18675fa43f42b43f5b84aba0e90a9efae315b65280",
        "width" : 640
      }, {
        "height" : 300,
        "url" : "https://mosaic.scdn.co/300/9194f91fa741a39ad59c9496abb0c7fc897ebc3f94e793d4df5245e4341b4912660c34d0d579835845c6092479996238de7569aa7312fc578fbc6c18675fa43f42b43f5b84aba0e90a9efae315b65280",
        "width" : 300
      }, {
        "height" : 60,
        "url" : "https://mosaic.scdn.co/60/9194f91fa741a39ad59c9496abb0c7fc897ebc3f94e793d4df5245e4341b4912660c34d0d579835845c6092479996238de7569aa7312fc578fbc6c18675fa43f42b43f5b84aba0e90a9efae315b65280",
        "width" : 60
      } ],
      "name" : "K-POP",
      "owner" : {
        "external_urls" : {
          "spotify" : "http://open.spotify.com/user/11186908745"
        },
        "href" : "https://api.spotify.com/v1/users/11186908745",
        "id" : "11186908745",
        "type" : "user",
        "uri" : "spotify:user:11186908745"
      },
      "public" : null,
      "snapshot_id" : "UVqr4tRBrVnnQ9bYjg3wnr4ysQg5+NVABXuHgTGuPYAStqRXuB83vZ2FyyUafCyz",
      "tracks" : {
        "href" : "https://api.spotify.com/v1/users/11186908745/playlists/78U80CImgPUYlE7cVft2JY/tracks",
        "total" : 348
      },
      "type" : "playlist",
      "uri" : "spotify:user:11186908745:playlist:78U80CImgPUYlE7cVft2JY"
    }, {
      "collaborative" : false,
      "external_urls" : {
        "spotify" : "http://open.spotify.com/user/its.rabia_/playlist/61tnceZRHDysHhAIaGHpL9"
      },
      "href" : "https://api.spotify.com/v1/users/its.rabia_/playlists/61tnceZRHDysHhAIaGHpL9",
      "id" : "61tnceZRHDysHhAIaGHpL9",
      "images" : [ {
        "height" : 640,
        "url" : "https://mosaic.scdn.co/640/8c13e9321035a4c167fb5703be9194f047f1f5baf4b64169d10066a08b7329daf81c76fd8ab6b6eab27fa56cc3ad996d72abfe7463931877e5de9eeac798c5669c71cb9bf987d5895c42f6d822a58d04",
        "width" : 640
      }, {
        "height" : 300,
        "url" : "https://mosaic.scdn.co/300/8c13e9321035a4c167fb5703be9194f047f1f5baf4b64169d10066a08b7329daf81c76fd8ab6b6eab27fa56cc3ad996d72abfe7463931877e5de9eeac798c5669c71cb9bf987d5895c42f6d822a58d04",
        "width" : 300
      }, {
        "height" : 60,
        "url" : "https://mosaic.scdn.co/60/8c13e9321035a4c167fb5703be9194f047f1f5baf4b64169d10066a08b7329daf81c76fd8ab6b6eab27fa56cc3ad996d72abfe7463931877e5de9eeac798c5669c71cb9bf987d5895c42f6d822a58d04",
        "width" : 60
      } ],
      "name" : "K-POP*-*",
      "owner" : {
        "external_urls" : {
          "spotify" : "http://open.spotify.com/user/its.rabia_"
        },
        "href" : "https://api.spotify.com/v1/users/its.rabia_",
        "id" : "its.rabia_",
        "type" : "user",
        "uri" : "spotify:user:its.rabia_"
      },
      "public" : null,
      "snapshot_id" : "cJmaIzAAS/eLVlnzZd6akLMtlni7cAZNXEuQuF+aADOajxsYHAaO0Y6iVH8TU5uA",
      "tracks" : {
        "href" : "https://api.spotify.com/v1/users/its.rabia_/playlists/61tnceZRHDysHhAIaGHpL9/tracks",
        "total" : 288
      },
      "type" : "playlist",
      "uri" : "spotify:user:its.rabia_:playlist:61tnceZRHDysHhAIaGHpL9"
    }, {
      "collaborative" : false,
      "external_urls" : {
        "spotify" : "http://open.spotify.com/user/spotifyphilippines/playlist/6iPgKbb5OdSilOBOKLtY8n"
      },
      "href" : "https://api.spotify.com/v1/users/spotifyphilippines/playlists/6iPgKbb5OdSilOBOKLtY8n",
      "id" : "6iPgKbb5OdSilOBOKLtY8n",
      "images" : [ {
        "height" : 300,
        "url" : "https://i.scdn.co/image/98d83bcce230eae0a89a8860c4234d8804d1e59e",
        "width" : 300
      } ],
      "name" : "Top Hits Philippines",
      "owner" : {
        "external_urls" : {
          "spotify" : "http://open.spotify.com/user/spotifyphilippines"
        },
        "href" : "https://api.spotify.com/v1/users/spotifyphilippines",
        "id" : "spotifyphilippines",
        "type" : "user",
        "uri" : "spotify:user:spotifyphilippines"
      },
      "public" : null,
      "snapshot_id" : "0SBZKyNVkKV2yRUCwlXg1fG4+itRbLVdzOnXoqGOF5JIbaPPjNl6sFZlBj0Tp+bU",
      "tracks" : {
        "href" : "https://api.spotify.com/v1/users/spotifyphilippines/playlists/6iPgKbb5OdSilOBOKLtY8n/tracks",
        "total" : 50
      },
      "type" : "playlist",
      "uri" : "spotify:user:spotifyphilippines:playlist:6iPgKbb5OdSilOBOKLtY8n"
    }, {
      "collaborative" : false,
      "external_urls" : {
        "spotify" : "http://open.spotify.com/user/spotify/playlist/0GsCJgN24wOrQljPRNtszI"
      },
      "href" : "https://api.spotify.com/v1/users/spotify/playlists/0GsCJgN24wOrQljPRNtszI",
      "id" : "0GsCJgN24wOrQljPRNtszI",
      "images" : [ {
        "height" : 300,
        "url" : "https://i.scdn.co/image/6de199a1aec2626c9e5da8a1652ff35f955f86ca",
        "width" : 300
      } ],
      "name" : "K-Pop Daebak",
      "owner" : {
        "external_urls" : {
          "spotify" : "http://open.spotify.com/user/spotify"
        },
        "href" : "https://api.spotify.com/v1/users/spotify",
        "id" : "spotify",
        "type" : "user",
        "uri" : "spotify:user:spotify"
      },
      "public" : null,
      "snapshot_id" : "F4vtZ2ZpRTzQWVvgCT/izFbU0DkBPzoWu9Va1pXjxO7jZ2TtvQfgha74QOL+L0zU",
      "tracks" : {
        "href" : "https://api.spotify.com/v1/users/spotify/playlists/0GsCJgN24wOrQljPRNtszI/tracks",
        "total" : 71
      },
      "type" : "playlist",
      "uri" : "spotify:user:spotify:playlist:0GsCJgN24wOrQljPRNtszI"
    }, {
      "collaborative" : false,
      "external_urls" : {
        "spotify" : "http://open.spotify.com/user/121489479/playlist/6Jx7wvYVlwWFANaBDe7qOk"
      },
      "href" : "https://api.spotify.com/v1/users/121489479/playlists/6Jx7wvYVlwWFANaBDe7qOk",
      "id" : "6Jx7wvYVlwWFANaBDe7qOk",
      "images" : [ {
        "height" : 300,
        "url" : "https://i.scdn.co/image/65456fd6282deb0e5086d85718c7c2ba928c3f6a",
        "width" : 300
      } ],
      "name" : "K-Pop Party",
      "owner" : {
        "external_urls" : {
          "spotify" : "http://open.spotify.com/user/121489479"
        },
        "href" : "https://api.spotify.com/v1/users/121489479",
        "id" : "121489479",
        "type" : "user",
        "uri" : "spotify:user:121489479"
      },
      "public" : null,
      "snapshot_id" : "DF2RqVoQsVazw2pFz+oFr2g9W7ExvUW8Y9BvdtidoNYZFVNUborYL281YC1yMX77",
      "tracks" : {
        "href" : "https://api.spotify.com/v1/users/121489479/playlists/6Jx7wvYVlwWFANaBDe7qOk/tracks",
        "total" : 148
      },
      "type" : "playlist",
      "uri" : "spotify:user:121489479:playlist:6Jx7wvYVlwWFANaBDe7qOk"
    }, {
      "collaborative" : false,
      "external_urls" : {
        "spotify" : "http://open.spotify.com/user/spotify/playlist/6LMdHYjV6btsvGjtONYG9A"
      },
      "href" : "https://api.spotify.com/v1/users/spotify/playlists/6LMdHYjV6btsvGjtONYG9A",
      "id" : "6LMdHYjV6btsvGjtONYG9A",
      "images" : [ {
        "height" : 300,
        "url" : "https://i.scdn.co/image/274df0dfd1fd25c975bebca0b3ba2a8af089d955",
        "width" : 300
      } ],
      "name" : "Workday K-Pop",
      "owner" : {
        "external_urls" : {
          "spotify" : "http://open.spotify.com/user/spotify"
        },
        "href" : "https://api.spotify.com/v1/users/spotify",
        "id" : "spotify",
        "type" : "user",
        "uri" : "spotify:user:spotify"
      },
      "public" : null,
      "snapshot_id" : "STX1NoPuhQyr19eBqMEskoO58gB5rLkeoCFq2rAZu/pEPWzJovF9SAWGuMiy/4tK",
      "tracks" : {
        "href" : "https://api.spotify.com/v1/users/spotify/playlists/6LMdHYjV6btsvGjtONYG9A/tracks",
        "total" : 119
      },
      "type" : "playlist",
      "uri" : "spotify:user:spotify:playlist:6LMdHYjV6btsvGjtONYG9A"
    }, {
      "collaborative" : false,
      "external_urls" : {
        "spotify" : "http://open.spotify.com/user/spotify/playlist/7genPxluIIM1FKAnKZ9W1A"
      },
      "href" : "https://api.spotify.com/v1/users/spotify/playlists/7genPxluIIM1FKAnKZ9W1A",
      "id" : "7genPxluIIM1FKAnKZ9W1A",
      "images" : [ {
        "height" : 300,
        "url" : "https://i.scdn.co/image/1c8705d4a0e5cc6aed8d0b02646f0af33a3088af",
        "width" : 300
      } ],
      "name" : "K-Pop Weekend!",
      "owner" : {
        "external_urls" : {
          "spotify" : "http://open.spotify.com/user/spotify"
        },
        "href" : "https://api.spotify.com/v1/users/spotify",
        "id" : "spotify",
        "type" : "user",
        "uri" : "spotify:user:spotify"
      },
      "public" : null,
      "snapshot_id" : "T+V1kiwsDA4wKLFwMrSH2823ljgqjRPMYW1Qj9KRghclVSgKZsn8LpwLWsEDR1s3",
      "tracks" : {
        "href" : "https://api.spotify.com/v1/users/spotify/playlists/7genPxluIIM1FKAnKZ9W1A/tracks",
        "total" : 79
      },
      "type" : "playlist",
      "uri" : "spotify:user:spotify:playlist:7genPxluIIM1FKAnKZ9W1A"
    }, {
      "collaborative" : false,
      "external_urls" : {
        "spotify" : "http://open.spotify.com/user/spotify/playlist/7qOmHMIZrQynDeGd380BjE"
      },
      "href" : "https://api.spotify.com/v1/users/spotify/playlists/7qOmHMIZrQynDeGd380BjE",
      "id" : "7qOmHMIZrQynDeGd380BjE",
      "images" : [ {
        "height" : 300,
        "url" : "https://i.scdn.co/image/8db2c3232502f24f85b673c9e593898e644ff970",
        "width" : 300
      } ],
      "name" : "Fantastic K-Workout",
      "owner" : {
        "external_urls" : {
          "spotify" : "http://open.spotify.com/user/spotify"
        },
        "href" : "https://api.spotify.com/v1/users/spotify",
        "id" : "spotify",
        "type" : "user",
        "uri" : "spotify:user:spotify"
      },
      "public" : null,
      "snapshot_id" : "teim8KwHcedo+coqQ18Q6x40Nl4o6WGRXU1am5DjVp77mNkXx6IAmsBqPkzeAjja",
      "tracks" : {
        "href" : "https://api.spotify.com/v1/users/spotify/playlists/7qOmHMIZrQynDeGd380BjE/tracks",
        "total" : 47
      },
      "type" : "playlist",
      "uri" : "spotify:user:spotify:playlist:7qOmHMIZrQynDeGd380BjE"
    }, {
      "collaborative" : false,
      "external_urls" : {
        "spotify" : "http://open.spotify.com/user/sophiebotdf/playlist/2hnLqGDeZnLxbUAS0M2Hjx"
      },
      "href" : "https://api.spotify.com/v1/users/sophiebotdf/playlists/2hnLqGDeZnLxbUAS0M2Hjx",
      "id" : "2hnLqGDeZnLxbUAS0M2Hjx",
      "images" : [ {
        "height" : 640,
        "url" : "https://mosaic.scdn.co/640/fe063136e322d5067f2b4c18eb550b5ddf9a69e0051caf6d650aa96186549b959840aeea29943e05e56d5f4e064e1a036fe8037b7c399dedb315b9c1ba9f5eb2e0697631e63e95418e33cf0e3277ecb8",
        "width" : 640
      }, {
        "height" : 300,
        "url" : "https://mosaic.scdn.co/300/fe063136e322d5067f2b4c18eb550b5ddf9a69e0051caf6d650aa96186549b959840aeea29943e05e56d5f4e064e1a036fe8037b7c399dedb315b9c1ba9f5eb2e0697631e63e95418e33cf0e3277ecb8",
        "width" : 300
      }, {
        "height" : 60,
        "url" : "https://mosaic.scdn.co/60/fe063136e322d5067f2b4c18eb550b5ddf9a69e0051caf6d650aa96186549b959840aeea29943e05e56d5f4e064e1a036fe8037b7c399dedb315b9c1ba9f5eb2e0697631e63e95418e33cf0e3277ecb8",
        "width" : 60
      } ],
      "name" : "k-pop",
      "owner" : {
        "external_urls" : {
          "spotify" : "http://open.spotify.com/user/sophiebotdf"
        },
        "href" : "https://api.spotify.com/v1/users/sophiebotdf",
        "id" : "sophiebotdf",
        "type" : "user",
        "uri" : "spotify:user:sophiebotdf"
      },
      "public" : null,
      "snapshot_id" : "JJ3imjKjjVQuZDsC67Slym29ZWPNXVCxV85xsxClToDbMQuUWjdT7Piqoe7c7C5Q",
      "tracks" : {
        "href" : "https://api.spotify.com/v1/users/sophiebotdf/playlists/2hnLqGDeZnLxbUAS0M2Hjx/tracks",
        "total" : 165
      },
      "type" : "playlist",
      "uri" : "spotify:user:sophiebotdf:playlist:2hnLqGDeZnLxbUAS0M2Hjx"
    }, {
      "collaborative" : false,
      "external_urls" : {
        "spotify" : "http://open.spotify.com/user/zulphur/playlist/3tFDKew4nyDkhqXCwF5iQj"
      },
      "href" : "https://api.spotify.com/v1/users/zulphur/playlists/3tFDKew4nyDkhqXCwF5iQj",
      "id" : "3tFDKew4nyDkhqXCwF5iQj",
      "images" : [ {
        "height" : 640,
        "url" : "https://mosaic.scdn.co/640/7152975a3e9e8a41b5072aa3371e2c6430530b51b5808e77a4958a02e39c44394c081eb2bfeb64a8f7e91e00fdca8a438961206ace375fc08dae87e1fe89c18c438d0e617d69b12f9166e79f6a598283",
        "width" : 640
      }, {
        "height" : 300,
        "url" : "https://mosaic.scdn.co/300/7152975a3e9e8a41b5072aa3371e2c6430530b51b5808e77a4958a02e39c44394c081eb2bfeb64a8f7e91e00fdca8a438961206ace375fc08dae87e1fe89c18c438d0e617d69b12f9166e79f6a598283",
        "width" : 300
      }, {
        "height" : 60,
        "url" : "https://mosaic.scdn.co/60/7152975a3e9e8a41b5072aa3371e2c6430530b51b5808e77a4958a02e39c44394c081eb2bfeb64a8f7e91e00fdca8a438961206ace375fc08dae87e1fe89c18c438d0e617d69b12f9166e79f6a598283",
        "width" : 60
      } ],
      "name" : "K-Pop",
      "owner" : {
        "external_urls" : {
          "spotify" : "http://open.spotify.com/user/zulphur"
        },
        "href" : "https://api.spotify.com/v1/users/zulphur",
        "id" : "zulphur",
        "type" : "user",
        "uri" : "spotify:user:zulphur"
      },
      "public" : null,
      "snapshot_id" : "KH/Ml6SaKlCtx1lrrzgR26EonXSpqKW0G3Q+gFeixPCePLf5QElXmkx0x01EbjQW",
      "tracks" : {
        "href" : "https://api.spotify.com/v1/users/zulphur/playlists/3tFDKew4nyDkhqXCwF5iQj/tracks",
        "total" : 90
      },
      "type" : "playlist",
      "uri" : "spotify:user:zulphur:playlist:3tFDKew4nyDkhqXCwF5iQj"
    }, {
      "collaborative" : false,
      "external_urls" : {
        "spotify" : "http://open.spotify.com/user/spotify/playlist/65xMIZcwsYMvIaEcUKIfFu"
      },
      "href" : "https://api.spotify.com/v1/users/spotify/playlists/65xMIZcwsYMvIaEcUKIfFu",
      "id" : "65xMIZcwsYMvIaEcUKIfFu",
      "images" : [ {
        "height" : 300,
        "url" : "https://i.scdn.co/image/13c59040f30a8d6b541ac2b5688c860def8286db",
        "width" : 300
      } ],
      "name" : "Morning K-Pop!",
      "owner" : {
        "external_urls" : {
          "spotify" : "http://open.spotify.com/user/spotify"
        },
        "href" : "https://api.spotify.com/v1/users/spotify",
        "id" : "spotify",
        "type" : "user",
        "uri" : "spotify:user:spotify"
      },
      "public" : null,
      "snapshot_id" : "ysCn3uDWbMc2UHQ1pI7qpDx3r19onnWyH8vJc23RUyWNh2WrlSko4mRxacb8UiVG",
      "tracks" : {
        "href" : "https://api.spotify.com/v1/users/spotify/playlists/65xMIZcwsYMvIaEcUKIfFu/tracks",
        "total" : 60
      },
      "type" : "playlist",
      "uri" : "spotify:user:spotify:playlist:65xMIZcwsYMvIaEcUKIfFu"
    }, {
      "collaborative" : false,
      "external_urls" : {
        "spotify" : "http://open.spotify.com/user/spotify/playlist/7avfv67Ane4qFV73l8foLu"
      },
      "href" : "https://api.spotify.com/v1/users/spotify/playlists/7avfv67Ane4qFV73l8foLu",
      "id" : "7avfv67Ane4qFV73l8foLu",
      "images" : [ {
        "height" : 300,
        "url" : "https://i.scdn.co/image/63cfa4073e7030a02c04a06011e59e4d18c501f3",
        "width" : 300
      } ],
      "name" : "5th Gaon Chart K-Pop Awards",
      "owner" : {
        "external_urls" : {
          "spotify" : "http://open.spotify.com/user/spotify"
        },
        "href" : "https://api.spotify.com/v1/users/spotify",
        "id" : "spotify",
        "type" : "user",
        "uri" : "spotify:user:spotify"
      },
      "public" : null,
      "snapshot_id" : "jFUGhnUDqGYzTDgL9wx3sz2el4W2JDjI4ZMom2sMRorQwlTKDHctkEIARHPP4hEx",
      "tracks" : {
        "href" : "https://api.spotify.com/v1/users/spotify/playlists/7avfv67Ane4qFV73l8foLu/tracks",
        "total" : 32
      },
      "type" : "playlist",
      "uri" : "spotify:user:spotify:playlist:7avfv67Ane4qFV73l8foLu"
    }, {
      "collaborative" : false,
      "external_urls" : {
        "spotify" : "http://open.spotify.com/user/spotify/playlist/4lPHYQE6wwIdDGExWGNj0s"
      },
      "href" : "https://api.spotify.com/v1/users/spotify/playlists/4lPHYQE6wwIdDGExWGNj0s",
      "id" : "4lPHYQE6wwIdDGExWGNj0s",
      "images" : [ {
        "height" : 300,
        "url" : "https://i.scdn.co/image/64d3527cd8f580801686d0e8cebc3d6d4d998e56",
        "width" : 300
      } ],
      "name" : "The Best of K-Pop Hits",
      "owner" : {
        "external_urls" : {
          "spotify" : "http://open.spotify.com/user/spotify"
        },
        "href" : "https://api.spotify.com/v1/users/spotify",
        "id" : "spotify",
        "type" : "user",
        "uri" : "spotify:user:spotify"
      },
      "public" : null,
      "snapshot_id" : "A0XImGsviVrEsAyylJfvFEjo7tgyX5nSN4Yu124iq0fqKKdHOaE9XOBO8nibqrew",
      "tracks" : {
        "href" : "https://api.spotify.com/v1/users/spotify/playlists/4lPHYQE6wwIdDGExWGNj0s/tracks",
        "total" : 82
      },
      "type" : "playlist",
      "uri" : "spotify:user:spotify:playlist:4lPHYQE6wwIdDGExWGNj0s"
    }, {
      "collaborative" : false,
      "external_urls" : {
        "spotify" : "http://open.spotify.com/user/fastwik/playlist/3BYRmGQ2znat5j2Z3KDiBD"
      },
      "href" : "https://api.spotify.com/v1/users/fastwik/playlists/3BYRmGQ2znat5j2Z3KDiBD",
      "id" : "3BYRmGQ2znat5j2Z3KDiBD",
      "images" : [ {
        "height" : 640,
        "url" : "https://mosaic.scdn.co/640/c3c720377661721797b538f80273dfe6995f026413b6629b39f34524bc503ffc3e758f17002613a61edc435e6cb6385088f8df33574b6b4e8fdd63a7b2ac1f305fb19e5a9e792f6275a0b7f3f8702c7a",
        "width" : 640
      }, {
        "height" : 300,
        "url" : "https://mosaic.scdn.co/300/c3c720377661721797b538f80273dfe6995f026413b6629b39f34524bc503ffc3e758f17002613a61edc435e6cb6385088f8df33574b6b4e8fdd63a7b2ac1f305fb19e5a9e792f6275a0b7f3f8702c7a",
        "width" : 300
      }, {
        "height" : 60,
        "url" : "https://mosaic.scdn.co/60/c3c720377661721797b538f80273dfe6995f026413b6629b39f34524bc503ffc3e758f17002613a61edc435e6cb6385088f8df33574b6b4e8fdd63a7b2ac1f305fb19e5a9e792f6275a0b7f3f8702c7a",
        "width" : 60
      } ],
      "name" : "K-POP",
      "owner" : {
        "external_urls" : {
          "spotify" : "http://open.spotify.com/user/fastwik"
        },
        "href" : "https://api.spotify.com/v1/users/fastwik",
        "id" : "fastwik",
        "type" : "user",
        "uri" : "spotify:user:fastwik"
      },
      "public" : null,
      "snapshot_id" : "SA/Eh1css0YW9EQprRG9ofOFLWrFkUtNdsQAjwEWFtLIF6dndhAv0tvkL6RXTQa8",
      "tracks" : {
        "href" : "https://api.spotify.com/v1/users/fastwik/playlists/3BYRmGQ2znat5j2Z3KDiBD/tracks",
        "total" : 201
      },
      "type" : "playlist",
      "uri" : "spotify:user:fastwik:playlist:3BYRmGQ2znat5j2Z3KDiBD"
    }, {
      "collaborative" : false,
      "external_urls" : {
        "spotify" : "http://open.spotify.com/user/spotify/playlist/4KRCtEo2RdDj9ClVQ97Jgb"
      },
      "href" : "https://api.spotify.com/v1/users/spotify/playlists/4KRCtEo2RdDj9ClVQ97Jgb",
      "id" : "4KRCtEo2RdDj9ClVQ97Jgb",
      "images" : [ {
        "height" : 300,
        "url" : "https://i.scdn.co/image/c0899f0993d437a7628962c7f2b107f6ec99feb8",
        "width" : 300
      } ],
      "name" : "K-Pop Commute",
      "owner" : {
        "external_urls" : {
          "spotify" : "http://open.spotify.com/user/spotify"
        },
        "href" : "https://api.spotify.com/v1/users/spotify",
        "id" : "spotify",
        "type" : "user",
        "uri" : "spotify:user:spotify"
      },
      "public" : null,
      "snapshot_id" : "AkQHQSR0G7Hn9bCdOp6EzCGcXokOQ5gkRdGexT1w7Dh1YIxRiTukPJzr8RD0j6TF",
      "tracks" : {
        "href" : "https://api.spotify.com/v1/users/spotify/playlists/4KRCtEo2RdDj9ClVQ97Jgb/tracks",
        "total" : 61
      },
      "type" : "playlist",
      "uri" : "spotify:user:spotify:playlist:4KRCtEo2RdDj9ClVQ97Jgb"
    }, {
      "collaborative" : false,
      "external_urls" : {
        "spotify" : "http://open.spotify.com/user/11131008054/playlist/0E8EtOCBwZdFIE8h6OZ63N"
      },
      "href" : "https://api.spotify.com/v1/users/11131008054/playlists/0E8EtOCBwZdFIE8h6OZ63N",
      "id" : "0E8EtOCBwZdFIE8h6OZ63N",
      "images" : [ {
        "height" : 640,
        "url" : "https://mosaic.scdn.co/640/5f0702e21f482f8e87e7d4529d8b386c77fb9dce606c4cff6dffb4fce5be3e80414ef897f798d7e77e193dd7a9c6c0e1ed1dcdb75bab1882f00d7694c48f6adec5d1d7829f88cbf2aed7c825de027494",
        "width" : 640
      }, {
        "height" : 300,
        "url" : "https://mosaic.scdn.co/300/5f0702e21f482f8e87e7d4529d8b386c77fb9dce606c4cff6dffb4fce5be3e80414ef897f798d7e77e193dd7a9c6c0e1ed1dcdb75bab1882f00d7694c48f6adec5d1d7829f88cbf2aed7c825de027494",
        "width" : 300
      }, {
        "height" : 60,
        "url" : "https://mosaic.scdn.co/60/5f0702e21f482f8e87e7d4529d8b386c77fb9dce606c4cff6dffb4fce5be3e80414ef897f798d7e77e193dd7a9c6c0e1ed1dcdb75bab1882f00d7694c48f6adec5d1d7829f88cbf2aed7c825de027494",
        "width" : 60
      } ],
      "name" : "2ne1 - K-Pop",
      "owner" : {
        "external_urls" : {
          "spotify" : "http://open.spotify.com/user/11131008054"
        },
        "href" : "https://api.spotify.com/v1/users/11131008054",
        "id" : "11131008054",
        "type" : "user",
        "uri" : "spotify:user:11131008054"
      },
      "public" : null,
      "snapshot_id" : "Aewi9y2KGLrrY+CRmwBNjC5acNe/4BuB5PtBD2SVrG4f4jXq0O4wMApqHwXErEpN",
      "tracks" : {
        "href" : "https://api.spotify.com/v1/users/11131008054/playlists/0E8EtOCBwZdFIE8h6OZ63N/tracks",
        "total" : 150
      },
      "type" : "playlist",
      "uri" : "spotify:user:11131008054:playlist:0E8EtOCBwZdFIE8h6OZ63N"
    }, {
      "collaborative" : false,
      "external_urls" : {
        "spotify" : "http://open.spotify.com/user/1255232300/playlist/0RC6Tn16t0rJiDnfrl6C2x"
      },
      "href" : "https://api.spotify.com/v1/users/1255232300/playlists/0RC6Tn16t0rJiDnfrl6C2x",
      "id" : "0RC6Tn16t0rJiDnfrl6C2x",
      "images" : [ {
        "height" : 640,
        "url" : "https://mosaic.scdn.co/640/994ca90c045697c80c4c1df515a50eb233b0c03f7d5fafb7ef03f0df6895d15080b7b5903fc5e14bfb7c21577492e7779d49d36389d0b9032ed44496fd2a30ede7827e580ed2ab4dde472dddb41a5b82",
        "width" : 640
      }, {
        "height" : 300,
        "url" : "https://mosaic.scdn.co/300/994ca90c045697c80c4c1df515a50eb233b0c03f7d5fafb7ef03f0df6895d15080b7b5903fc5e14bfb7c21577492e7779d49d36389d0b9032ed44496fd2a30ede7827e580ed2ab4dde472dddb41a5b82",
        "width" : 300
      }, {
        "height" : 60,
        "url" : "https://mosaic.scdn.co/60/994ca90c045697c80c4c1df515a50eb233b0c03f7d5fafb7ef03f0df6895d15080b7b5903fc5e14bfb7c21577492e7779d49d36389d0b9032ed44496fd2a30ede7827e580ed2ab4dde472dddb41a5b82",
        "width" : 60
      } ],
      "name" : "Korean Hip Hop, R&B, & Non-crap K-Pop",
      "owner" : {
        "external_urls" : {
          "spotify" : "http://open.spotify.com/user/1255232300"
        },
        "href" : "https://api.spotify.com/v1/users/1255232300",
        "id" : "1255232300",
        "type" : "user",
        "uri" : "spotify:user:1255232300"
      },
      "public" : null,
      "snapshot_id" : "pNCyw2o5spPAudAtxjZfo6czze6IUxWlbBOq2ccXUzRTVsolvY7Xg12Jz5YnZdAN",
      "tracks" : {
        "href" : "https://api.spotify.com/v1/users/1255232300/playlists/0RC6Tn16t0rJiDnfrl6C2x/tracks",
        "total" : 156
      },
      "type" : "playlist",
      "uri" : "spotify:user:1255232300:playlist:0RC6Tn16t0rJiDnfrl6C2x"
    }, {
      "collaborative" : false,
      "external_urls" : {
        "spotify" : "http://open.spotify.com/user/ajnoie/playlist/4Yn1pZr27n72btB9ZdU54h"
      },
      "href" : "https://api.spotify.com/v1/users/ajnoie/playlists/4Yn1pZr27n72btB9ZdU54h",
      "id" : "4Yn1pZr27n72btB9ZdU54h",
      "images" : [ {
        "height" : 640,
        "url" : "https://mosaic.scdn.co/640/9753f6ca4c3df55b19302ac745cdb66a5504c1fac798c5669c71cb9bf987d5895c42f6d822a58d04051caf6d650aa96186549b959840aeea29943e05d3e93de111fb84fc6310dba7461fb8258bf96906",
        "width" : 640
      }, {
        "height" : 300,
        "url" : "https://mosaic.scdn.co/300/9753f6ca4c3df55b19302ac745cdb66a5504c1fac798c5669c71cb9bf987d5895c42f6d822a58d04051caf6d650aa96186549b959840aeea29943e05d3e93de111fb84fc6310dba7461fb8258bf96906",
        "width" : 300
      }, {
        "height" : 60,
        "url" : "https://mosaic.scdn.co/60/9753f6ca4c3df55b19302ac745cdb66a5504c1fac798c5669c71cb9bf987d5895c42f6d822a58d04051caf6d650aa96186549b959840aeea29943e05d3e93de111fb84fc6310dba7461fb8258bf96906",
        "width" : 60
      } ],
      "name" : "K pop",
      "owner" : {
        "external_urls" : {
          "spotify" : "http://open.spotify.com/user/ajnoie"
        },
        "href" : "https://api.spotify.com/v1/users/ajnoie",
        "id" : "ajnoie",
        "type" : "user",
        "uri" : "spotify:user:ajnoie"
      },
      "public" : null,
      "snapshot_id" : "zF7dSbJ7lyxfE4WVRrvtimhXPsfiDP9tGaWUmlAi2OPordBNWi7dxZLRteoBTAIk",
      "tracks" : {
        "href" : "https://api.spotify.com/v1/users/ajnoie/playlists/4Yn1pZr27n72btB9ZdU54h/tracks",
        "total" : 87
      },
      "type" : "playlist",
      "uri" : "spotify:user:ajnoie:playlist:4Yn1pZr27n72btB9ZdU54h"
    }, {
      "collaborative" : false,
      "external_urls" : {
        "spotify" : "http://open.spotify.com/user/rozoda/playlist/591ctRm8HJhGmLwdjwa5jX"
      },
      "href" : "https://api.spotify.com/v1/users/rozoda/playlists/591ctRm8HJhGmLwdjwa5jX",
      "id" : "591ctRm8HJhGmLwdjwa5jX",
      "images" : [ {
        "height" : 640,
        "url" : "https://mosaic.scdn.co/640/d3e93de111fb84fc6310dba7461fb8258bf9690621613ba7e468f0081b35f7784cd17b52e4048bc1987e98006898c57a3191a9fa2438e2696683eca2051caf6d650aa96186549b959840aeea29943e05",
        "width" : 640
      }, {
        "height" : 300,
        "url" : "https://mosaic.scdn.co/300/d3e93de111fb84fc6310dba7461fb8258bf9690621613ba7e468f0081b35f7784cd17b52e4048bc1987e98006898c57a3191a9fa2438e2696683eca2051caf6d650aa96186549b959840aeea29943e05",
        "width" : 300
      }, {
        "height" : 60,
        "url" : "https://mosaic.scdn.co/60/d3e93de111fb84fc6310dba7461fb8258bf9690621613ba7e468f0081b35f7784cd17b52e4048bc1987e98006898c57a3191a9fa2438e2696683eca2051caf6d650aa96186549b959840aeea29943e05",
        "width" : 60
      } ],
      "name" : " K-POP",
      "owner" : {
        "external_urls" : {
          "spotify" : "http://open.spotify.com/user/rozoda"
        },
        "href" : "https://api.spotify.com/v1/users/rozoda",
        "id" : "rozoda",
        "type" : "user",
        "uri" : "spotify:user:rozoda"
      },
      "public" : null,
      "snapshot_id" : "qYvYeMA+rMDjcYaQmbAo9/W1OUcP/o74NuaUC3TkTnV6VX02NCztkoLzLF6MM/B2",
      "tracks" : {
        "href" : "https://api.spotify.com/v1/users/rozoda/playlists/591ctRm8HJhGmLwdjwa5jX/tracks",
        "total" : 585
      },
      "type" : "playlist",
      "uri" : "spotify:user:rozoda:playlist:591ctRm8HJhGmLwdjwa5jX"
    }, {
      "collaborative" : false,
      "external_urls" : {
        "spotify" : "http://open.spotify.com/user/11140769358/playlist/4p0SXzM4Loz1vyjv5CLvZO"
      },
      "href" : "https://api.spotify.com/v1/users/11140769358/playlists/4p0SXzM4Loz1vyjv5CLvZO",
      "id" : "4p0SXzM4Loz1vyjv5CLvZO",
      "images" : [ {
        "height" : 640,
        "url" : "https://mosaic.scdn.co/640/987e98006898c57a3191a9fa2438e2696683eca22f7a314383ff25a23428aef0603a40c1ced1db862dd2d102ebddf54acc10c17d2d44b2f3532130bd86ea7dc3d0f3ea74b2d363f561a7f9e9edb0f9f0",
        "width" : 640
      }, {
        "height" : 300,
        "url" : "https://mosaic.scdn.co/300/987e98006898c57a3191a9fa2438e2696683eca22f7a314383ff25a23428aef0603a40c1ced1db862dd2d102ebddf54acc10c17d2d44b2f3532130bd86ea7dc3d0f3ea74b2d363f561a7f9e9edb0f9f0",
        "width" : 300
      }, {
        "height" : 60,
        "url" : "https://mosaic.scdn.co/60/987e98006898c57a3191a9fa2438e2696683eca22f7a314383ff25a23428aef0603a40c1ced1db862dd2d102ebddf54acc10c17d2d44b2f3532130bd86ea7dc3d0f3ea74b2d363f561a7f9e9edb0f9f0",
        "width" : 60
      } ],
      "name" : "K-Pop",
      "owner" : {
        "external_urls" : {
          "spotify" : "http://open.spotify.com/user/11140769358"
        },
        "href" : "https://api.spotify.com/v1/users/11140769358",
        "id" : "11140769358",
        "type" : "user",
        "uri" : "spotify:user:11140769358"
      },
      "public" : null,
      "snapshot_id" : "7++5aPX8offhwR3EqAVCSTd/Z7s/GbR70On97HN0FMXQQVUyLoiTcW4AVeXfmPbX",
      "tracks" : {
        "href" : "https://api.spotify.com/v1/users/11140769358/playlists/4p0SXzM4Loz1vyjv5CLvZO/tracks",
        "total" : 449
      },
      "type" : "playlist",
      "uri" : "spotify:user:11140769358:playlist:4p0SXzM4Loz1vyjv5CLvZO"
    } ],
    "limit" : 20,
    "next" : "https://api.spotify.com/v1/search?query=%22k+pop%22&offset=20&limit=20&type=playlist",
    "offset" : 0,
    "previous" : null,
    "total" : 1429
  }
}
